Division,WeightClassKg,Place,Name,Team,BodyweightKg,Best3SquatKg,Best3BenchKg,Best3DeadliftKg,TotalKg,Equipment,Event,Sex
Boys,55.79,1,Ty Vanbuskirk,Perrin-Whitt,55.25,83.91,58.97,102.06,244.94,Single-ply,SBD,M
Boys,67.13,1,Danari Curry,Wichita Falls Rider,65.59,151.95,97.52,156.49,405.97,Single-ply,SBD,M
Boys,67.13,2,John Marquez,Perrin-Whitt,66.04,147.42,86.18,147.42,381.02,Single-ply,SBD,M
Boys,67.13,3,Daniel Fox,Wichita Falls Rider,66.5,142.88,72.57,158.76,374.21,Single-ply,SBD,M
Boys,67.13,DQ,Bryzon Austin,Vernon,62.87,,70.31,136.08,,Single-ply,SBD,M
Boys,74.84,1,Riki Borders,Wichita Falls Rider,72.67,172.37,83.91,174.63,430.91,Single-ply,SBD,M
Boys,74.84,2,Michael Trinh,Wichita Falls,73.84,161.03,83.91,176.9,421.84,Single-ply,SBD,M
Boys,74.84,3,Brysan Garrard,Vernon,71.21,151.95,102.06,158.76,412.77,Single-ply,SBD,M
Boys,82.1,1,Marcus King,Wichita Falls,79.65,217.72,117.93,226.8,562.45,Single-ply,SBD,M
Boys,82.1,2,TJ Story,Vernon,82.1,174.63,111.13,174.63,460.4,Single-ply,SBD,M
Boys,82.1,3,Jeremiah Rodriguez,Wichita Falls Rider,78.83,142.88,95.25,190.51,428.64,Single-ply,SBD,M
Boys,82.1,4,Dalton Reagan,Vernon,78.47,158.76,102.06,158.76,419.57,Single-ply,SBD,M
Boys,82.1,5,Aaron Hawkins,Wichita Falls Rider,77.29,124.74,86.18,158.76,369.68,Single-ply,SBD,M
Boys,89.81,1,Juan Salazar,Vernon,82.64,188.24,129.27,226.8,544.31,Single-ply,SBD,M
Boys,89.81,2,Joshua Rodriquez,Wichita Falls Rider,87,158.76,97.52,188.24,444.52,Single-ply,SBD,M
Boys,89.81,DQ,Josh Ealom,Vernon,83.01,,124.74,181.44,,Single-ply,SBD,M
Boys,89.81,DQ,Josh Cates,Wichita Falls,84.96,,,,,Single-ply,SBD,M
Boys,89.81,DQ,Andres Huerta,Vernon,86.09,,,154.22,,Single-ply,SBD,M
Boys,99.79,1,Tyler Kindig,Wichita Falls Rider,97.16,233.6,147.42,208.65,589.67,Single-ply,SBD,M
Boys,99.79,2,Lucas Ramsey,Perrin-Whitt,94.26,249.48,136.08,195.04,580.6,Single-ply,SBD,M
Boys,99.79,3,Jimmy Tran #3,Wichita Falls,97.79,229.06,117.93,197.31,544.31,Single-ply,SBD,M
Boys,109.77,1,Caleb Hughes,Wichita Falls Rider,102.15,208.65,138.35,210.92,557.92,Single-ply,SBD,M
Boys,109.77,2,Tristan Barbare,Perrin-Whitt,101.24,233.6,117.93,195.04,546.58,Single-ply,SBD,M
Boys,109.77,3,Aaron Matthews,Wichita Falls Rider,103.78,226.8,113.4,197.31,537.51,Single-ply,SBD,M
Boys,109.77,4,Dakota Armstrong,Perrin-Whitt,103.24,206.38,97.52,192.78,496.68,Single-ply,SBD,M
Boys,109.77,5,Jacob Galloway,Wichita Falls,104.24,201.85,106.59,176.9,485.34,Single-ply,SBD,M
Boys,109.77,DQ,Preston Newman,Vernon,108.77,,133.81,199.58,,Single-ply,SBD,M
Boys,124.74,1,Jonathan Ewing,Wichita Falls Rider,110.95,197.31,133.81,199.58,530.7,Single-ply,SBD,M
Boys,124.74,2,Dallas Torres,Wichita Falls,120.29,195.04,99.79,185.97,480.81,Single-ply,SBD,M
Boys,124.74,DQ,Samuel Hufnagle,Perrin-Whitt,115.85,163.29,,156.49,,Single-ply,SBD,M
Boys,124.74+,1,Dontryll Dever,Wichita Falls,135.17,258.55,165.56,233.6,657.71,Single-ply,SBD,M
Boys,124.74+,2,Aaron Rozzell,Vernon,155.58,226.8,154.22,226.8,607.81,Single-ply,SBD,M
Boys,124.74+,3,Andrew Fry,Wichita Falls Rider,133.17,226.8,147.42,208.65,582.87,Single-ply,SBD,M
Boys,124.74+,4,Todd Beebe,Vernon,127.55,170.1,117.93,195.04,483.08,Single-ply,SBD,M
Boys,124.74+,5,Justin Diaz,Wichita Falls,134.26,127.01,83.91,124.74,335.66,Single-ply,SBD,M
