﻿BDFPF BK. CHAMP BEL POWERLIFTING UNEQ 2014
BK. Powerlifting Unequipped 2014
BW     SQ     BE     DL    TOT  POINTS
- 44 KG Van Casteren                         Hanne    Gilberts         15 T1   40,0    65,5    35,5    82,5    182,5   217,87
                                                                                               37,5
- 80 KG Wuyts                                Helen    Gilbert          23 JR   70,4    115     65      160,5   340     256,70
                                                                                       125,5
75 KG Sudarminto                             Indra    Planet Fitness   23 JR   73,2    215     153,5   230     597,5   404,75
75 KG Mariën                                 Lenn     Do-It            22 JR   74,8    197,5   127,5   220     545     362,92
75 KG Verbinnen                              Sonny    Gilberts Gym     23 JR   74,6    125     125     185     435     290,28
75 KG Thirth                                 Ram      Dynamic Gym      41 M1   73,5    180     153     247,5   580     391,62
                                                                                               155
75 KG Hallewaert                             Bart     Isogym           45 M2   74,7    185     130     210     525     349,97
75 KG Callemeyn                              Johny    Fit 4 fun        60 M5   72,8    145     102,5   170     417,5   284,11
                                                                                       147,5   105
82,5 KG Jans                                 Ben      Patton Team      17 T2   80,0    150     100     0       0       0,00
90 KG Peeters                                Alan     Do-It            20 JR   89,3    215     165     270     650     382,27
                                                                                       220             280
110 KG Vermote                               Gianni   Isogym           41 M1   109,4   200     142,5   235,5   577,5   310,23
210,5
Nat Record
European Record
World Record
Best Lifter
Drugtested
21-06-2014 Turnhout
